{
  "last_node_id": 15,
  "last_link_id": 2,
  "nodes": [
    {
      "id": 15,
      "type": "basic/Text",
      "pos": [
        167,
        262
      ],
      "size": {
        "0": 140,
        "1": 19
      },
      "flags": {
        "collapsed": false
      },
      "mode": 0,
      "outputs": [
        {
          "name": "out",
          "links": [
            1
          ]
        }
      ],
      "title": "file",
      "properties": {
        "text": " https://unpkg.com/sunvoxjs/test.sunvox"
      },
      "shape": 2
    },
    {
      "id": 2,
      "type": "basic/script",
      "pos": [
        537,
        285
      ],
      "size": [
        140,
        49
      ],
      "flags": {
        "collapsed": false
      },
      "mode": 0,
      "inputs": [
        {
          "name": "play",
          "type": -1,
          "link": null
        },
        {
          "name": "stop",
          "type": -1,
          "link": null
        },
        {
          "name": "file",
          "type": 0,
          "link": 1
        }
      ],
      "outputs": [],
      "title": "sunvox",
      "properties": {
        "onExecute": "this.addInput(\"play\" ,LiteGraph.EVENT )\nthis.addInput(\"stop\" ,LiteGraph.EVENT )\nthis.addInput(\"file\")\n\nthis.onLoad = function onLoad(){\n    if( window.svlib ) return // load only once\n    \n    graph.framedelay = 1000 // set to 1 fps to save cpu for audio\n    \n  \tvar init = function(){\n      function status(l){ console.log(l) }\n  \n      svlib.loadFromArrayBuffer = ( buf ) => {\n        if( buf ) \n        {\n          var byteArray = new Uint8Array( buf );\n          if( sv_load_from_memory( 0, byteArray ) == 0 )\n          {\n            console.log( \"song loaded\" )\n          }\n        }\n        else\n        {\n          console.log( \"song load error\" );\n        }\n\n      }\n\n      svlib.loadSong = (fname) => {\n        console.log( \"loading: \" + fname );\n        var req = new XMLHttpRequest();\n        req.open( \"GET\", fname, true );\n        req.responseType = \"arraybuffer\";\n        req.onload = function( e ) {\n          if( this.status != 200 ){\n            console.log( \"file not found\" );\n            return;\n          }\n          var arrayBuffer = this.response;\n          svlib.loadFromArrayBuffer( arrayBuffer );\n       \t  sv_play_from_beginning( 0 );          \n          svlib.createNodes()\n        };\n        req.send( null ); \n      }\n      \n      svlib.createNodes = function(){\n         var mm = sv_get_number_of_modules( 0 ); \n        \n         for( var i = 0; i < mm; i++ ){\n         \tvar name = \"sunvox/\"+sv_get_module_name(0,i)\n            console.log(name)\n            //LiteGraph.wrapFunctionAsNode ( name,function(a){\n            //  \n            //},[])\n            //graph.createNodeType(name)\n         }\n      }\n\n      svlib.init = function(){\n        svlib.then( function(Module) {\n            //\n            // SunVox Library was successfully loaded.\n            // Here we can perform some initialization:\n            //\n            status( \"SunVoxLib loading is complete\" );\n            var ver = sv_init( 0, 44100, 2, 0 ); //Global sound system init\n            if( ver >= 0 )\n            {\n            //Show information about the library:\n                var major = ( ver >> 16 ) & 255;\n                var minor1 = ( ver >> 8 ) & 255;\n                var minor2 = ( ver ) & 255;\n                console.log( \"SunVox lib version: \" + major + \" \" + minor1 + \" \" + minor2 );\n            console.log( \"init ok\" );\n            }\n            else\n            {\n            console.log( \"init error\" );\n            return;\n            }\n            sv_open_slot( 0 ); //Open sound slot 0 for SunVox; you can use several slots simultaneously (each slot with its own SunVox engine)\n            //\n            // Try to load and play some SunVox file:\n            //\n        });  \n      }\n    }\n    \n    return new Promise( (resolve,reject) => {\n      load(['https://unpkg.com/sunvoxjs/sunvox.js'])\n  \t  .then( () => load(['https://unpkg.com/sunvoxjs/sunvox_lib_loader.js']) )\n      .then( init )\n      .then(resolve)\n      .catch(reject)\n    })\n}\n\nthis.onInit = () => {\n\n}\n\nthis.onEvent = (action, args) => {\n\tif( action == \"play\" ) sv_play_from_beginning(0)\n    if( action == \"stop\" ) sv_stop()\n}\n\nthis.onStart = () => {\n  \tsv_deinit()\n    svlib.init()\n    var sfile = this.getInputDataByName(\"file\",true)\n    console.log(\"loading \"+sfile) \t\n    svlib.loadSong( sfile );   \n}\n\nthis.onStop = () => {\n  sv_stop()\n}\n// process incoming event (optional: return promise)\nreturn this.onEvent",
        "onLoad": "function onLoad(){\n    if( window.svlib ) return // load only once\n    \n    graph.framedelay = 1000 // set to 1 fps to save cpu for audio\n    \n  \tvar init = function(){\n      function status(l){ console.log(l) }\n  \n      svlib.loadFromArrayBuffer = ( buf ) => {\n        if( buf ) \n        {\n          var byteArray = new Uint8Array( buf );\n          if( sv_load_from_memory( 0, byteArray ) == 0 )\n          {\n            console.log( \"song loaded\" )\n          }\n        }\n        else\n        {\n          console.log( \"song load error\" );\n        }\n\n      }\n\n      svlib.loadSong = (fname) => {\n        console.log( \"loading: \" + fname );\n        var req = new XMLHttpRequest();\n        req.open( \"GET\", fname, true );\n        req.responseType = \"arraybuffer\";\n        req.onload = function( e ) {\n          if( this.status != 200 ){\n            console.log( \"file not found\" );\n            return;\n          }\n          var arrayBuffer = this.response;\n          svlib.loadFromArrayBuffer( arrayBuffer );\n       \t  sv_play_from_beginning( 0 );          \n          svlib.createNodes()\n        };\n        req.send( null ); \n      }\n      \n      svlib.createNodes = function(){\n         var mm = sv_get_number_of_modules( 0 ); \n        \n         for( var i = 0; i < mm; i++ ){\n         \tvar name = \"sunvox/\"+sv_get_module_name(0,i)\n            console.log(name)\n            //LiteGraph.wrapFunctionAsNode ( name,function(a){\n            //  \n            //},[])\n            //graph.createNodeType(name)\n         }\n      }\n\n      svlib.init = function(){\n        svlib.then( function(Module) {\n            //\n            // SunVox Library was successfully loaded.\n            // Here we can perform some initialization:\n            //\n            status( \"SunVoxLib loading is complete\" );\n            var ver = sv_init( 0, 44100, 2, 0 ); //Global sound system init\n            if( ver >= 0 )\n            {\n            //Show information about the library:\n                var major = ( ver >> 16 ) & 255;\n                var minor1 = ( ver >> 8 ) & 255;\n                var minor2 = ( ver ) & 255;\n                console.log( \"SunVox lib version: \" + major + \" \" + minor1 + \" \" + minor2 );\n            console.log( \"init ok\" );\n            }\n            else\n            {\n            console.log( \"init error\" );\n            return;\n            }\n            sv_open_slot( 0 ); //Open sound slot 0 for SunVox; you can use several slots simultaneously (each slot with its own SunVox engine)\n            //\n            // Try to load and play some SunVox file:\n            //\n        });  \n      }\n    }\n    \n    return new Promise( (resolve,reject) => {\n      load(['https://unpkg.com/sunvoxjs/sunvox.js'])\n  \t  .then( () => load(['https://unpkg.com/sunvoxjs/sunvox_lib_loader.js']) )\n      .then( init )\n      .then(resolve)\n      .catch(reject)\n    })\n}"
      },
      "shape": 2
    }
  ],
  "links": [
    [
      1,
      15,
      0,
      2,
      2,
      0
    ]
  ],
  "groups": [],
  "config": {}
}